11 Summarise data – Quantitative Data Analysis for Linguists in R
…
 NA. 0. 10.66.

Hint

Check the documentation of ?mean.

11.3 Grouping data with group_by()

More often, you will want to calculate summary measures for specific subsets of the data. An elegant way of doing this is with the group_by() function from dplyr. This function takes a tibble, groups the data based on the specified columns, and returns another tibble with the grouping.

shallow_g <- group_by(shallow, Group)

It looks as if nothing happened, but now the rows in the shallow_g tibble are grouped depending on the value of Group (L1 or L2). If you print out the tibble in the console (just write shallow_g in the Console and press enter), you will notice that the second line of the output says Groups: Group [2], like in the output below. This line tells you how the tibble is grouped: here it is grouped by Group and there are two groups.

# A tibble: 6,500 × 11
# Groups:   Group [2]
   Group ID    List  Target        ACC    RT logRT Critical_Filler Word_Nonword
   <chr> <chr> <chr> <chr>       <dbl> <dbl> <dbl> <chr>           <chr>       
 1 L1    L1_01 A     banoshment      1   423  6.05 Filler          Nonword     
 2 L1    L1_01 A     unawareness     1   603  6.40 Critical        Word        
 3 L1    L1_01 A     unholiness      1   739  6.61 Critical        Word        
 4 L1    L1_01 A     bictimize       1   510  6.23 Filler          Nonword     
 5 L1    L1_01 A     unhappiness     1   370  5.91 Critical        Word        
 6 L1    L1_01 A     entertainer     1   689  6.54 Filler          Word        
 7 L1    L1_01 A     unsharpness     1   821  6.71 Critical        Word        
 8 L1    L1_01 A     fersistent      1   677  6.52 Filler          Nonword     
 9 L1    L1_01 A     specificity     0   798  6.68 Filler          Word        
10 L1    L1_01 A     termination     1   610  6.41 Filler          Word        
# ℹ 6,490 more rows
# ℹ 2 more variables: Relation_type <chr>, Branching <chr>
…
